{
    "voresSkyld": [
        {
            "sandheden": "fakta1",
            "paavirkning": "Danskernes töjforbrug er 35% höjere end hos resten af jordens befolkning"
        },
        {
            "sandheden": "fakta2",
            "paavirkning": "Der bruges ca. 2.450 forskellige kemikalier i tekstilproduktionen"
        },
        {
            "sandheden": "fakta3",
            "paavirkning": "Modeindustrien forurener mere end int. luftfart og shipping industrien tilsammen"
        },
        {
            "sandheden": "fakta4",
            "paavirkning": "Modeindustrien bruger ca. 93 milliarder kubikmeter vand aarligt."
        },
        {
            "sandheden": "fakta5",
            "paavirkning": "59% af europaeiske modemaerke reklamerer med falske baeredygtige paastande"
        },
        {
            "sandheden": "fakta6",
            "paavirkning": "68% af modeindustrien opretholder ikke ligestilling mellem könnene på deres fabrikker"
        },
        {
            "sandheden": "fakta7",
            "paavirkning": "Fremstillingen af töj er ansvarlig for 1/5 del af industriel vandforurening"
        },
        {
            "sandheden": "fakta8",
            "paavirkning": "Det kraever 3 kg. kemikalier at producere 1 kg. bomuld"
        },
        {
            "sandheden": "fakta9",
            "paavirkning": "Vaagn op!"
        }

    ]

}

